<?xml version="1.0" encoding="UTF-8"?><svg xmlns="http://www.w3.org/2000/svg" xmlns:xlink="http://www.w3.org/1999/xlink" stroke-dasharray="none" shape-rendering="auto" font-family="'Dialog'" width="1204" text-rendering="auto" fill-opacity="1" contentScriptType="text/ecmascript" color-interpolation="auto" color-rendering="auto" preserveAspectRatio="xMidYMid meet" font-size="12" fill="black" stroke="black" image-rendering="auto" stroke-miterlimit="10" zoomAndPan="magnify" version="1.0" stroke-linecap="square" stroke-linejoin="miter" contentStyleType="text/css" font-style="normal" height="804" stroke-width="1" stroke-dashoffset="0" font-weight="normal" stroke-opacity="1">
<!--Generated by the Batik Graphics2D SVG Generator-->
<defs id="genericDefs"/>
<g>
<defs id="defs1">
<clipPath clipPathUnits="userSpaceOnUse" id="clipPath1">
<path d="M25 9 L1179 9 L1179 779 L25 779 L25 9 Z"/>
</clipPath>
<clipPath clipPathUnits="userSpaceOnUse" id="clipPath2">
<path d="M-1 -1 L1205 -1 L1205 805 L-1 805 L-1 -1 Z"/>
</clipPath>
<clipPath clipPathUnits="userSpaceOnUse" id="clipPath3">
<path d="M25 777 L1179 777 L1179 805 L25 805 L25 777 Z"/>
</clipPath>
</defs>
<g fill="white" text-rendering="geometricPrecision" font-family="'Segoe UI'" stroke-linejoin="round" stroke="white" stroke-width="0" stroke-miterlimit="0">
<rect x="26" y="10" clip-path="url(#clipPath1)" width="1152" height="768" stroke="none"/>
</g>
<g stroke-linecap="butt" fill="rgb(204,204,204)" text-rendering="geometricPrecision" font-family="'Segoe UI'" stroke-dasharray="3,3" stroke="rgb(204,204,204)">
<line clip-path="url(#clipPath1)" fill="none" x1="26" x2="1178" y1="778" y2="778"/>
<line clip-path="url(#clipPath1)" fill="none" x1="26" x2="1178" y1="698" y2="698"/>
<line clip-path="url(#clipPath1)" fill="none" x1="26" x2="1178" y1="618" y2="618"/>
<line clip-path="url(#clipPath1)" fill="none" x1="26" x2="1178" y1="538" y2="538"/>
<line clip-path="url(#clipPath1)" fill="none" x1="26" x2="1178" y1="458" y2="458"/>
<line clip-path="url(#clipPath1)" fill="none" x1="26" x2="1178" y1="379" y2="379"/>
<line clip-path="url(#clipPath1)" fill="none" x1="26" x2="1178" y1="299" y2="299"/>
<line clip-path="url(#clipPath1)" fill="none" x1="26" x2="1178" y1="219" y2="219"/>
<line clip-path="url(#clipPath1)" fill="none" x1="26" x2="1178" y1="139" y2="139"/>
<line clip-path="url(#clipPath1)" fill="none" x1="26" x2="1178" y1="59" y2="59"/>
<rect x="1154" y="179" clip-path="url(#clipPath1)" fill="rgb(128,128,255)" width="11" height="598" stroke="none"/>
<rect x="1154" y="179" clip-path="url(#clipPath1)" fill="none" width="11" stroke-dasharray="none" height="598"/>
<rect x="1136" y="167" clip-path="url(#clipPath1)" fill="olive" width="11" stroke-dasharray="none" height="610" stroke="none"/>
<rect x="1136" y="167" clip-path="url(#clipPath1)" fill="none" width="11" stroke-dasharray="none" height="610"/>
<rect x="1119" y="179" clip-path="url(#clipPath1)" fill="aqua" width="11" stroke-dasharray="none" height="598" stroke="none"/>
<rect x="1119" y="179" clip-path="url(#clipPath1)" fill="none" width="11" stroke-dasharray="none" height="598"/>
<rect x="1101" y="163" clip-path="url(#clipPath1)" fill="teal" width="11" stroke-dasharray="none" height="614" stroke="none"/>
<rect x="1101" y="163" clip-path="url(#clipPath1)" fill="none" width="11" stroke-dasharray="none" height="614"/>
<rect x="1083" y="167" clip-path="url(#clipPath1)" fill="rgb(160,0,0)" width="11" stroke-dasharray="none" height="610" stroke="none"/>
<rect x="1083" y="167" clip-path="url(#clipPath1)" fill="none" width="11" stroke-dasharray="none" height="610"/>
<rect x="1066" y="171" clip-path="url(#clipPath1)" fill="rgb(169,169,169)" width="11" stroke-dasharray="none" height="606" stroke="none"/>
<rect x="1066" y="171" clip-path="url(#clipPath1)" fill="none" width="11" stroke-dasharray="none" height="606"/>
<rect x="1048" y="187" clip-path="url(#clipPath1)" fill="green" width="11" stroke-dasharray="none" height="590" stroke="none"/>
<rect x="1048" y="187" clip-path="url(#clipPath1)" fill="none" width="11" stroke-dasharray="none" height="590"/>
<rect x="1031" y="163" clip-path="url(#clipPath1)" fill="rgb(255,165,0)" width="11" stroke-dasharray="none" height="614" stroke="none"/>
<rect x="1031" y="163" clip-path="url(#clipPath1)" fill="none" width="11" stroke-dasharray="none" height="614"/>
<rect x="1013" y="167" clip-path="url(#clipPath1)" fill="rgb(0,100,0)" width="11" stroke-dasharray="none" height="610" stroke="none"/>
<rect x="1013" y="167" clip-path="url(#clipPath1)" fill="none" width="11" stroke-dasharray="none" height="610"/>
<rect x="995" y="159" clip-path="url(#clipPath1)" fill="rgb(238,0,0)" width="11" stroke-dasharray="none" height="618" stroke="none"/>
<rect x="995" y="159" clip-path="url(#clipPath1)" fill="none" width="11" stroke-dasharray="none" height="618"/>
<rect x="978" y="167" clip-path="url(#clipPath1)" fill="rgb(0,0,139)" width="11" stroke-dasharray="none" height="610" stroke="none"/>
<rect x="978" y="167" clip-path="url(#clipPath1)" fill="none" width="11" stroke-dasharray="none" height="610"/>
<rect x="919" y="139" clip-path="url(#clipPath1)" fill="rgb(128,128,255)" width="11" stroke-dasharray="none" height="638" stroke="none"/>
<rect x="919" y="139" clip-path="url(#clipPath1)" fill="none" width="11" stroke-dasharray="none" height="638"/>
<rect x="901" y="127" clip-path="url(#clipPath1)" fill="olive" width="11" stroke-dasharray="none" height="650" stroke="none"/>
<rect x="901" y="127" clip-path="url(#clipPath1)" fill="none" width="11" stroke-dasharray="none" height="650"/>
<rect x="884" y="139" clip-path="url(#clipPath1)" fill="aqua" width="11" stroke-dasharray="none" height="638" stroke="none"/>
<rect x="884" y="139" clip-path="url(#clipPath1)" fill="none" width="11" stroke-dasharray="none" height="638"/>
<rect x="866" y="123" clip-path="url(#clipPath1)" fill="teal" width="11" stroke-dasharray="none" height="654" stroke="none"/>
<rect x="866" y="123" clip-path="url(#clipPath1)" fill="none" width="11" stroke-dasharray="none" height="654"/>
<rect x="848" y="127" clip-path="url(#clipPath1)" fill="rgb(160,0,0)" width="11" stroke-dasharray="none" height="650" stroke="none"/>
<rect x="848" y="127" clip-path="url(#clipPath1)" fill="none" width="11" stroke-dasharray="none" height="650"/>
<rect x="831" y="131" clip-path="url(#clipPath1)" fill="rgb(169,169,169)" width="11" stroke-dasharray="none" height="646" stroke="none"/>
<rect x="831" y="131" clip-path="url(#clipPath1)" fill="none" width="11" stroke-dasharray="none" height="646"/>
<rect x="813" y="147" clip-path="url(#clipPath1)" fill="green" width="11" stroke-dasharray="none" height="630" stroke="none"/>
<rect x="813" y="147" clip-path="url(#clipPath1)" fill="none" width="11" stroke-dasharray="none" height="630"/>
<rect x="795" y="127" clip-path="url(#clipPath1)" fill="rgb(255,165,0)" width="11" stroke-dasharray="none" height="650" stroke="none"/>
<rect x="795" y="127" clip-path="url(#clipPath1)" fill="none" width="11" stroke-dasharray="none" height="650"/>
<rect x="778" y="127" clip-path="url(#clipPath1)" fill="rgb(0,100,0)" width="11" stroke-dasharray="none" height="650" stroke="none"/>
<rect x="778" y="127" clip-path="url(#clipPath1)" fill="none" width="11" stroke-dasharray="none" height="650"/>
<rect x="760" y="119" clip-path="url(#clipPath1)" fill="rgb(238,0,0)" width="11" stroke-dasharray="none" height="658" stroke="none"/>
<rect x="760" y="119" clip-path="url(#clipPath1)" fill="none" width="11" stroke-dasharray="none" height="658"/>
<rect x="743" y="127" clip-path="url(#clipPath1)" fill="rgb(0,0,139)" width="11" stroke-dasharray="none" height="650" stroke="none"/>
<rect x="743" y="127" clip-path="url(#clipPath1)" fill="none" width="11" stroke-dasharray="none" height="650"/>
<rect x="684" y="778" clip-path="url(#clipPath1)" fill="rgb(128,128,255)" width="11" stroke-dasharray="none" height="1" stroke="none"/>
<rect x="666" y="778" clip-path="url(#clipPath1)" fill="olive" width="11" stroke-dasharray="none" height="1" stroke="none"/>
<rect x="649" y="778" clip-path="url(#clipPath1)" fill="aqua" width="11" stroke-dasharray="none" height="1" stroke="none"/>
<rect x="631" y="778" clip-path="url(#clipPath1)" fill="teal" width="11" stroke-dasharray="none" height="1" stroke="none"/>
<rect x="613" y="778" clip-path="url(#clipPath1)" fill="rgb(160,0,0)" width="11" stroke-dasharray="none" height="1" stroke="none"/>
<rect x="596" y="778" clip-path="url(#clipPath1)" fill="rgb(169,169,169)" width="11" stroke-dasharray="none" height="1" stroke="none"/>
<rect x="578" y="778" clip-path="url(#clipPath1)" fill="green" width="11" stroke-dasharray="none" height="1" stroke="none"/>
<rect x="560" y="778" clip-path="url(#clipPath1)" fill="rgb(255,165,0)" width="11" stroke-dasharray="none" height="1" stroke="none"/>
<rect x="543" y="778" clip-path="url(#clipPath1)" fill="rgb(0,100,0)" width="11" stroke-dasharray="none" height="1" stroke="none"/>
<rect x="525" y="778" clip-path="url(#clipPath1)" fill="rgb(238,0,0)" width="11" stroke-dasharray="none" height="1" stroke="none"/>
<rect x="507" y="778" clip-path="url(#clipPath1)" fill="rgb(0,0,139)" width="11" stroke-dasharray="none" height="1" stroke="none"/>
<rect x="449" y="99" clip-path="url(#clipPath1)" fill="rgb(128,128,255)" width="11" stroke-dasharray="none" height="678" stroke="none"/>
<rect x="449" y="99" clip-path="url(#clipPath1)" fill="none" width="11" stroke-dasharray="none" height="678"/>
<rect x="431" y="91" clip-path="url(#clipPath1)" fill="olive" width="11" stroke-dasharray="none" height="686" stroke="none"/>
<rect x="431" y="91" clip-path="url(#clipPath1)" fill="none" width="11" stroke-dasharray="none" height="686"/>
<rect x="413" y="99" clip-path="url(#clipPath1)" fill="aqua" width="11" stroke-dasharray="none" height="678" stroke="none"/>
<rect x="413" y="99" clip-path="url(#clipPath1)" fill="none" width="11" stroke-dasharray="none" height="678"/>
<rect x="396" y="83" clip-path="url(#clipPath1)" fill="teal" width="11" stroke-dasharray="none" height="694" stroke="none"/>
<rect x="396" y="83" clip-path="url(#clipPath1)" fill="none" width="11" stroke-dasharray="none" height="694"/>
<rect x="378" y="87" clip-path="url(#clipPath1)" fill="rgb(160,0,0)" width="11" stroke-dasharray="none" height="690" stroke="none"/>
<rect x="378" y="87" clip-path="url(#clipPath1)" fill="none" width="11" stroke-dasharray="none" height="690"/>
<rect x="361" y="91" clip-path="url(#clipPath1)" fill="rgb(169,169,169)" width="11" stroke-dasharray="none" height="686" stroke="none"/>
<rect x="361" y="91" clip-path="url(#clipPath1)" fill="none" width="11" stroke-dasharray="none" height="686"/>
<rect x="343" y="111" clip-path="url(#clipPath1)" fill="green" width="11" stroke-dasharray="none" height="666" stroke="none"/>
<rect x="343" y="111" clip-path="url(#clipPath1)" fill="none" width="11" stroke-dasharray="none" height="666"/>
<rect x="325" y="87" clip-path="url(#clipPath1)" fill="rgb(255,165,0)" width="11" stroke-dasharray="none" height="690" stroke="none"/>
<rect x="325" y="87" clip-path="url(#clipPath1)" fill="none" width="11" stroke-dasharray="none" height="690"/>
<rect x="308" y="87" clip-path="url(#clipPath1)" fill="rgb(0,100,0)" width="11" stroke-dasharray="none" height="690" stroke="none"/>
<rect x="308" y="87" clip-path="url(#clipPath1)" fill="none" width="11" stroke-dasharray="none" height="690"/>
<rect x="290" y="79" clip-path="url(#clipPath1)" fill="rgb(238,0,0)" width="11" stroke-dasharray="none" height="698" stroke="none"/>
<rect x="290" y="79" clip-path="url(#clipPath1)" fill="none" width="11" stroke-dasharray="none" height="698"/>
<rect x="272" y="91" clip-path="url(#clipPath1)" fill="rgb(0,0,139)" width="11" stroke-dasharray="none" height="686" stroke="none"/>
<rect x="272" y="91" clip-path="url(#clipPath1)" fill="none" width="11" stroke-dasharray="none" height="686"/>
<rect x="214" y="99" clip-path="url(#clipPath1)" fill="rgb(128,128,255)" width="11" stroke-dasharray="none" height="678" stroke="none"/>
<rect x="214" y="99" clip-path="url(#clipPath1)" fill="none" width="11" stroke-dasharray="none" height="678"/>
<rect x="196" y="91" clip-path="url(#clipPath1)" fill="olive" width="11" stroke-dasharray="none" height="686" stroke="none"/>
<rect x="196" y="91" clip-path="url(#clipPath1)" fill="none" width="11" stroke-dasharray="none" height="686"/>
<rect x="178" y="99" clip-path="url(#clipPath1)" fill="aqua" width="11" stroke-dasharray="none" height="678" stroke="none"/>
<rect x="178" y="99" clip-path="url(#clipPath1)" fill="none" width="11" stroke-dasharray="none" height="678"/>
<rect x="161" y="83" clip-path="url(#clipPath1)" fill="teal" width="11" stroke-dasharray="none" height="694" stroke="none"/>
<rect x="161" y="83" clip-path="url(#clipPath1)" fill="none" width="11" stroke-dasharray="none" height="694"/>
<rect x="143" y="87" clip-path="url(#clipPath1)" fill="rgb(160,0,0)" width="11" stroke-dasharray="none" height="690" stroke="none"/>
<rect x="143" y="87" clip-path="url(#clipPath1)" fill="none" width="11" stroke-dasharray="none" height="690"/>
<rect x="125" y="91" clip-path="url(#clipPath1)" fill="rgb(169,169,169)" width="11" stroke-dasharray="none" height="686" stroke="none"/>
<rect x="125" y="91" clip-path="url(#clipPath1)" fill="none" width="11" stroke-dasharray="none" height="686"/>
<rect x="108" y="111" clip-path="url(#clipPath1)" fill="green" width="11" stroke-dasharray="none" height="666" stroke="none"/>
<rect x="108" y="111" clip-path="url(#clipPath1)" fill="none" width="11" stroke-dasharray="none" height="666"/>
<rect x="90" y="87" clip-path="url(#clipPath1)" fill="rgb(255,165,0)" width="11" stroke-dasharray="none" height="690" stroke="none"/>
<rect x="90" y="87" clip-path="url(#clipPath1)" fill="none" width="11" stroke-dasharray="none" height="690"/>
<rect x="73" y="87" clip-path="url(#clipPath1)" fill="rgb(0,100,0)" width="11" stroke-dasharray="none" height="690" stroke="none"/>
<rect x="73" y="87" clip-path="url(#clipPath1)" fill="none" width="11" stroke-dasharray="none" height="690"/>
<rect x="55" y="79" clip-path="url(#clipPath1)" fill="rgb(238,0,0)" width="11" stroke-dasharray="none" height="698" stroke="none"/>
<rect x="55" y="79" clip-path="url(#clipPath1)" fill="none" width="11" stroke-dasharray="none" height="698"/>
<rect x="37" y="91" clip-path="url(#clipPath1)" fill="rgb(0,0,139)" width="11" stroke-dasharray="none" height="686" stroke="none"/>
<rect x="37" y="91" clip-path="url(#clipPath1)" fill="none" width="11" stroke-dasharray="none" height="686"/>
<rect x="26" y="10" clip-path="url(#clipPath2)" fill="none" width="1152" stroke-dasharray="none" height="768" stroke="black"/>
<line clip-path="url(#clipPath2)" fill="none" x1="27" x2="1177" y1="778" y2="778" stroke-dasharray="none"/>
</g>
<g text-rendering="geometricPrecision" font-size="13" font-family="'Arial'" stroke-linecap="butt">
<line clip-path="url(#clipPath2)" fill="none" x1="24" x2="24" y1="10" y2="778"/>
<line clip-path="url(#clipPath2)" fill="none" x1="1180" x2="1180" y1="10" y2="778"/>
<line clip-path="url(#clipPath2)" fill="none" x1="20" x2="24" y1="778" y2="778"/>
<line clip-path="url(#clipPath2)" fill="none" x1="1184" x2="1180" y1="778" y2="778"/>
<text x="14" font-size="10" y="781" clip-path="url(#clipPath2)" stroke="none" xml:space="preserve">0</text>
<text x="1187" font-size="10" y="781" clip-path="url(#clipPath2)" stroke="none" xml:space="preserve">0</text>
<line clip-path="url(#clipPath2)" fill="none" x1="22" x2="24" y1="738" y2="738"/>
<line clip-path="url(#clipPath2)" fill="none" x1="1182" x2="1180" y1="738" y2="738"/>
<line clip-path="url(#clipPath2)" fill="none" x1="20" x2="24" y1="698" y2="698"/>
<line clip-path="url(#clipPath2)" fill="none" x1="1184" x2="1180" y1="698" y2="698"/>
<text x="14" font-size="10" y="701" clip-path="url(#clipPath2)" stroke="none" xml:space="preserve">2</text>
<text x="1187" font-size="10" y="701" clip-path="url(#clipPath2)" stroke="none" xml:space="preserve">2</text>
<line clip-path="url(#clipPath2)" fill="none" x1="22" x2="24" y1="658" y2="658"/>
<line clip-path="url(#clipPath2)" fill="none" x1="1182" x2="1180" y1="658" y2="658"/>
<line clip-path="url(#clipPath2)" fill="none" x1="20" x2="24" y1="618" y2="618"/>
<line clip-path="url(#clipPath2)" fill="none" x1="1184" x2="1180" y1="618" y2="618"/>
<text x="14" font-size="10" y="621" clip-path="url(#clipPath2)" stroke="none" xml:space="preserve">4</text>
<text x="1187" font-size="10" y="621" clip-path="url(#clipPath2)" stroke="none" xml:space="preserve">4</text>
<line clip-path="url(#clipPath2)" fill="none" x1="22" x2="24" y1="578" y2="578"/>
<line clip-path="url(#clipPath2)" fill="none" x1="1182" x2="1180" y1="578" y2="578"/>
<line clip-path="url(#clipPath2)" fill="none" x1="20" x2="24" y1="538" y2="538"/>
<line clip-path="url(#clipPath2)" fill="none" x1="1184" x2="1180" y1="538" y2="538"/>
<text x="14" font-size="10" y="541" clip-path="url(#clipPath2)" stroke="none" xml:space="preserve">6</text>
<text x="1187" font-size="10" y="541" clip-path="url(#clipPath2)" stroke="none" xml:space="preserve">6</text>
<line clip-path="url(#clipPath2)" fill="none" x1="22" x2="24" y1="498" y2="498"/>
<line clip-path="url(#clipPath2)" fill="none" x1="1182" x2="1180" y1="498" y2="498"/>
<line clip-path="url(#clipPath2)" fill="none" x1="20" x2="24" y1="458" y2="458"/>
<line clip-path="url(#clipPath2)" fill="none" x1="1184" x2="1180" y1="458" y2="458"/>
<text x="14" font-size="10" y="461" clip-path="url(#clipPath2)" stroke="none" xml:space="preserve">8</text>
<text x="1187" font-size="10" y="461" clip-path="url(#clipPath2)" stroke="none" xml:space="preserve">8</text>
<line clip-path="url(#clipPath2)" fill="none" x1="22" x2="24" y1="418" y2="418"/>
<line clip-path="url(#clipPath2)" fill="none" x1="1182" x2="1180" y1="418" y2="418"/>
<line clip-path="url(#clipPath2)" fill="none" x1="20" x2="24" y1="379" y2="379"/>
<line clip-path="url(#clipPath2)" fill="none" x1="1184" x2="1180" y1="379" y2="379"/>
<text x="9" font-size="10" y="382" clip-path="url(#clipPath2)" stroke="none" xml:space="preserve">10</text>
<text x="1187" font-size="10" y="382" clip-path="url(#clipPath2)" stroke="none" xml:space="preserve">10</text>
<line clip-path="url(#clipPath2)" fill="none" x1="22" x2="24" y1="339" y2="339"/>
<line clip-path="url(#clipPath2)" fill="none" x1="1182" x2="1180" y1="339" y2="339"/>
<line clip-path="url(#clipPath2)" fill="none" x1="20" x2="24" y1="299" y2="299"/>
<line clip-path="url(#clipPath2)" fill="none" x1="1184" x2="1180" y1="299" y2="299"/>
<text x="9" font-size="10" y="302" clip-path="url(#clipPath2)" stroke="none" xml:space="preserve">12</text>
<text x="1187" font-size="10" y="302" clip-path="url(#clipPath2)" stroke="none" xml:space="preserve">12</text>
<line clip-path="url(#clipPath2)" fill="none" x1="22" x2="24" y1="259" y2="259"/>
<line clip-path="url(#clipPath2)" fill="none" x1="1182" x2="1180" y1="259" y2="259"/>
<line clip-path="url(#clipPath2)" fill="none" x1="20" x2="24" y1="219" y2="219"/>
<line clip-path="url(#clipPath2)" fill="none" x1="1184" x2="1180" y1="219" y2="219"/>
<text x="9" font-size="10" y="222" clip-path="url(#clipPath2)" stroke="none" xml:space="preserve">14</text>
<text x="1187" font-size="10" y="222" clip-path="url(#clipPath2)" stroke="none" xml:space="preserve">14</text>
<line clip-path="url(#clipPath2)" fill="none" x1="22" x2="24" y1="179" y2="179"/>
<line clip-path="url(#clipPath2)" fill="none" x1="1182" x2="1180" y1="179" y2="179"/>
<line clip-path="url(#clipPath2)" fill="none" x1="20" x2="24" y1="139" y2="139"/>
<line clip-path="url(#clipPath2)" fill="none" x1="1184" x2="1180" y1="139" y2="139"/>
<text x="9" font-size="10" y="142" clip-path="url(#clipPath2)" stroke="none" xml:space="preserve">16</text>
<text x="1187" font-size="10" y="142" clip-path="url(#clipPath2)" stroke="none" xml:space="preserve">16</text>
<line clip-path="url(#clipPath2)" fill="none" x1="22" x2="24" y1="99" y2="99"/>
<line clip-path="url(#clipPath2)" fill="none" x1="1182" x2="1180" y1="99" y2="99"/>
<line clip-path="url(#clipPath2)" fill="none" x1="20" x2="24" y1="59" y2="59"/>
<line clip-path="url(#clipPath2)" fill="none" x1="1184" x2="1180" y1="59" y2="59"/>
<text x="9" font-size="10" y="62" clip-path="url(#clipPath2)" stroke="none" xml:space="preserve">18</text>
<text x="1187" font-size="10" y="62" clip-path="url(#clipPath2)" stroke="none" xml:space="preserve">18</text>
<line clip-path="url(#clipPath2)" fill="none" x1="22" x2="24" y1="19" y2="19"/>
<line clip-path="url(#clipPath2)" fill="none" x1="1182" x2="1180" y1="19" y2="19"/>
<line clip-path="url(#clipPath3)" fill="none" x1="37" x2="225" y1="782" y2="782"/>
<line clip-path="url(#clipPath3)" fill="none" x1="272" x2="460" y1="782" y2="782"/>
<line clip-path="url(#clipPath3)" fill="none" x1="507" x2="695" y1="782" y2="782"/>
<line clip-path="url(#clipPath3)" fill="none" x1="743" x2="930" y1="782" y2="782"/>
<line clip-path="url(#clipPath3)" fill="none" x1="978" x2="1165" y1="782" y2="782"/>
<text x="37" font-size="10" y="793" clip-path="url(#clipPath3)" stroke="none" xml:space="preserve">RSUExampleScenario.node[0].appl</text>
<text x="272" font-size="10" y="793" clip-path="url(#clipPath3)" stroke="none" xml:space="preserve">RSUExampleScenario.node[1].appl</text>
<text x="507" font-size="10" y="793" clip-path="url(#clipPath3)" stroke="none" xml:space="preserve">RSUExampleScenario.node[2].appl</text>
<text x="743" font-size="10" y="793" clip-path="url(#clipPath3)" stroke="none" xml:space="preserve">RSUExampleScenario.node[3].appl</text>
<text x="978" font-size="10" y="793" clip-path="url(#clipPath3)" stroke="none" xml:space="preserve">RSUExampleScenario.node[4].appl</text>
</g>
</g>
</svg>
